Parcial-2023 Sofia Gerard cu: 149721 y Román Vélez cu: 165462
…
    # get combined ratio of votes
    df_combined_ratio  <- get_combined_ratio(df_population, df_sample_by_estrato)
    return(df_combined_ratio)
}

# generate bootstrap samples
set.seed(SEED)
N_BOOT  <- 250
df_bootstrap_combined_ratio  <- map_dfr(1:N_BOOT, ~ svy_boot(df_computos, 
                                                             df_muestra))

# look bootstraps
df_bootstrap_combined_ratio

## # A tibble: 750 × 2
##    OPCION combined_ratio
##    <chr>           <dbl>
##  1 NO             0.0157
##  2 NULOS          0.0494
##  3 SI             0.935 
##  4 NO             0.0146
##  5 NULOS          0.0570
##  6 SI             0.928 
##  7 NO             0.0147
##  8 NULOS          0.0638
##  9 SI             0.922 
## 10 NO             0.0145
## # … with 740 more rows
…
