Tarea 06
…
print(glimpse(df_recidivism))

## Rows: 17,022
## Columns: 8
## $ Gender  <chr> "M", "M", "M", "M", "M", "M", "M", "M", "M", "M", "M", "M", "M…
## $ Age     <chr> "Under 25", "55 and Older", "25-34", "55 and Older", "25-34", …
## $ Age25   <chr> "Under 25", "Over 25", "Over 25", "Over 25", "Over 25", "Under…
## $ Race    <chr> "White-NonHispanic", "White-NonHispanic", "White-NonHispanic",…
## $ Offense <chr> "Felony", "Felony", "Felony", "Felony", "Felony", "Felony", "M…
## $ Recid   <chr> "Yes", "Yes", "Yes", "Yes", "Yes", "Yes", "Yes", "Yes", "Yes",…
## $ Type    <chr> "Tech", "Tech", "Tech", "Tech", "Tech", "Tech", "New", "Tech",…
## $ Days    <dbl> 16, 19, 22, 25, 26, 27, 28, 41, 44, 46, 48, 49, 49, 51, 51, 53…
## # A tibble: 17,022 × 8
##    Gender Age          Age25    Race              Offense     Recid Type   Days
##    <chr>  <chr>        <chr>    <chr>             <chr>       <chr> <chr> <dbl>
##  1 M      Under 25     Under 25 White-NonHispanic Felony      Yes   Tech     16
##  2 M      55 and Older Over 25  White-NonHispanic Felony      Yes   Tech     19
##  3 M      25-34        Over 25  White-NonHispanic Felony      Yes   Tech     22
##  4 M      55 and Older Over 25  White-NonHispanic Felony      Yes   Tech     25
##  5 M      25-34        Over 25  Black-NonHispanic Felony      Yes   Tech     26
##  6 M      Under 25     Under 25 White-NonHispanic Felony      Yes   Tech     27
##  7 M      45-54        Over 25  White-NonHispanic Misdemeanor Yes   New      28
##  8 M      45-54        Over 25  White-NonHispanic Felony      Yes   Tech     41
##  9 M      45-54        Over 25  White-NonHispanic Misdemeanor Yes   Tech     44
## 10 M      45-54        Over 25  White-NonHispanic Felony      Yes   Tech     46
## # … with 17,012 more rows
…
df_enlace <- read_csv("../../data/enlace_15.csv")

## Rows: 7518 Columns: 8
## ── Column specification ────────────────────────────────────────────────────────
## Delimiter: ","
## chr (2): turno, tipo
## dbl (6): id, cve_ent, esp_3, esp_6, n_eval_3, n_eval_6
## 
## ℹ Use `spec()` to retrieve the full column specification for this data.
## ℹ Specify the column types or set `show_col_types = FALSE` to quiet this message.

df_enlace

## # A tibble: 7,518 × 8
##       id cve_ent turno    tipo     esp_3 esp_6 n_eval_3 n_eval_6
##    <dbl>   <dbl> <chr>    <chr>    <dbl> <dbl>    <dbl>    <dbl>
##  1 38570      15 MATUTINO INDêGENA   550   483       13       19
##  2 38571      15 MATUTINO INDêGENA   485   490       17       18
##  3 38572      15 MATUTINO INDêGENA   462   385        9        9
##  4 38573      15 MATUTINO INDêGENA   646   613       33       26
##  5 38574      15 MATUTINO INDêGENA   508   452       26       35
##  6 38575      15 MATUTINO INDêGENA   502   500       10       13
##  7 38576      15 MATUTINO INDêGENA   570   454       65       49
##  8 38577      15 MATUTINO INDêGENA   441   427       82       78
##  9 38578      15 MATUTINO INDêGENA   597   582      132      110
## 10 38579      15 MATUTINO INDêGENA   648   614       16       18
## # … with 7,508 more rows
…
